<?xml version="1.0" encoding="utf-8" ?>
<kml xmlns="http://www.opengis.net/kml/2.2">
<Document id="root_doc">
<Schema name="Limites_totales" id="Limites_totales">
	<SimpleField name="altitudeMode" type="string"></SimpleField>
	<SimpleField name="tomas" type="string"></SimpleField>
	<SimpleField name="fch_polig" type="string"></SimpleField>
	<SimpleField name="Departamen" type="string"></SimpleField>
	<SimpleField name="area_mz_1" type="string"></SimpleField>
	<SimpleField name="área" type="string"></SimpleField>
	<SimpleField name="fch_imag" type="string"></SimpleField>
	<SimpleField name="tipo_imag" type="string"></SimpleField>
	<SimpleField name="Nombre_del" type="string"></SimpleField>
	<SimpleField name="Número_Ú" type="string"></SimpleField>
	<SimpleField name="Rubro" type="string"></SimpleField>
	<SimpleField name="FID" type="string"></SimpleField>
	<SimpleField name="Área_Ha" type="string"></SimpleField>
	<SimpleField name="Categoría" type="string"></SimpleField>
	<SimpleField name="Field_1" type="string"></SimpleField>
</Schema>
<Folder><name>Limites_totales</name>
  <Placemark>
	<name>J.J. BORJA NATHAN S.A.</name>
	<Style><LineStyle><color>ff0000ff</color></LineStyle><PolyStyle><fill>0</fill></PolyStyle></Style>
	<ExtendedData><SchemaData schemaUrl="#Limites_totales">
		<SimpleData name="altitudeMode">clampToGround</SimpleData>
		<SimpleData name="tomas">0</SimpleData>
		<SimpleData name="fch_polig">06/12/2019</SimpleData>
		<SimpleData name="Departamen">LA LIBERTAD</SimpleData>
		<SimpleData name="area_mz_1">258.29</SimpleData>
		<SimpleData name="área">0</SimpleData>
		<SimpleData name="fch_imag">04/12/2019</SimpleData>
		<SimpleData name="tipo_imag">DRONE</SimpleData>
		<SimpleData name="Nombre_del">J.J. BORJA NATHAN S.A.</SimpleData>
		<SimpleData name="Número_Ú">856819</SimpleData>
		<SimpleData name="Rubro">CAFE</SimpleData>
		<SimpleData name="FID">0</SimpleData>
		<SimpleData name="Área_Ha">0</SimpleData>
		<SimpleData name="Categoría">CAFE</SimpleData>
		<SimpleData name="Field_1">J.J. BORJA NATHAN S.A.</SimpleData>
	</SchemaData></ExtendedData>
      <MultiGeometry><Polygon><outerBoundaryIs><LinearRing><coordinates>-89.4212501206428,13.6978800846897 -89.4213648499747,13.6975748784836 -89.4215615679708,13.6966760768559 -89.4216926058642,13.6966521419151 -89.422005551349,13.6965949800537 -89.4225145160124,13.6965020129274 -89.4236933009714,13.6964447057928 -89.4240470724728,13.6962582033578 -89.4244738399006,13.6958879495063 -89.4248583599417,13.6941361915062 -89.4255774536506,13.6921523593873 -89.4258604491032,13.6914540503218 -89.4260258402519,13.691315711626 -89.4270485844484,13.6891178505668 -89.4276353436807,13.6879223661947 -89.4268854453521,13.6873624238201 -89.4265941321194,13.6872008295366 -89.4260685399003,13.6870595539322 -89.4255045750734,13.6868271354261 -89.4251845014721,13.6866472364362 -89.4251083184698,13.6865198580399 -89.4251622201508,13.6862996872533 -89.4252342765227,13.6860244279216 -89.4253999199563,13.6857482515547 -89.4255464704604,13.6854356551315 -89.4258594134297,13.6849200890122 -89.425778541079,13.6843351680356 -89.4257180748158,13.6839147789371 -89.4256228002821,13.6837509805581 -89.4251688974392,13.6832978388001 -89.4243429014569,13.6830679828202 -89.4243329258753,13.6830646496567 -89.4242025412846,13.6826571337667 -89.4229010309971,13.6816906329648 -89.4221323168013,13.6815700293517 -89.4206175367926,13.6817129690444 -89.4193570257056,13.6820089960065 -89.4179865437819,13.6825348866513 -89.4175775674009,13.6828134354545 -89.4175434917526,13.6832467004337 -89.4174947293942,13.683866704228 -89.4175868096368,13.6846345581665 -89.4174925570687,13.6854865982798 -89.4172091654205,13.686148297336 -89.4165795895835,13.6868225284806 -89.4162947925169,13.6873469633561 -89.4161981061304,13.6879610799066 -89.4159514760545,13.6894735397516 -89.4157918927163,13.6903445216843 -89.4157527608488,13.6910953538513 -89.4157745628692,13.6913971513882 -89.4158047894354,13.6916073483524 -89.4156620150288,13.6917563926854 -89.4157863206944,13.6920472097572 -89.4159794834909,13.6926310406232 -89.4160605255011,13.6932342698257 -89.4160367527882,13.6935365261623 -89.4154760373304,13.6942009195038 -89.4150916453275,13.6950557929514 -89.4154311920966,13.6953087288442 -89.4157321810605,13.6954522187858 -89.4164071631176,13.6955554477404 -89.4167680489034,13.6960644239901 -89.417060143141,13.6971689399602 -89.4171578517094,13.6975706650672 -89.4170893393926,13.6981936583025 -89.4169667294706,13.6990185202799 -89.416943354981,13.6991432707786 -89.416953788082,13.6995837715442 -89.4170186456189,13.7004342566544 -89.417016837916,13.700604061935 -89.4170206339707,13.7006287133338 -89.4171085513115,13.7007007803275 -89.4171279616404,13.7010555116153 -89.4171029715552,13.7013577658423 -89.41715857015,13.7014638216438 -89.4173954759314,13.7013571942067 -89.4175217808974,13.7013513834067 -89.4176013357034,13.7013506055605 -89.4184407792336,13.7014018831044 -89.4187682640182,13.701389527926 -89.4190678110374,13.701391173358 -89.4191220257247,13.7013528245011 -89.4189875904189,13.701255431854 -89.418897950586,13.70118538231 -89.4185898970743,13.7008669385058 -89.418540268859,13.7008193769399 -89.4184602804462,13.7005490369779 -89.4184738622644,13.7002754938606 -89.4185381839112,13.7001581792013 -89.4188460230847,13.699941244664 -89.4191161675323,13.6998139086856 -89.4193419134575,13.6996927267143 -89.4193773488444,13.6994967602254 -89.4195423157969,13.6991530975704 -89.4196259506408,13.6988651414677 -89.4195315954108,13.6985629111623 -89.4194020730472,13.6982541609633 -89.4194388311226,13.6981874507809 -89.4195573421197,13.6981062130795 -89.4196688101848,13.6980227562896 -89.4198081459857,13.698032832765 -89.4198959816613,13.6979267276141 -89.4199604191796,13.6978208513926 -89.4199633191885,13.6976469387949 -89.4198366886614,13.6976207224078 -89.4197293385244,13.6976492281323 -89.4194304987095,13.6977162143801 -89.4193331631614,13.6978086846109 -89.4192495386685,13.6978689893741 -89.4188940279547,13.6978861944468 -89.4187020230434,13.6978743445832 -89.4183387671926,13.6977063004385 -89.4181676802691,13.6974517225705 -89.418260523807,13.6973776002941 -89.4183719453329,13.6972895686181 -89.418534936077,13.6972101844398 -89.4187074731331,13.697149010432 -89.4190285169546,13.6969651224279 -89.4191868275976,13.6968857836599 -89.4193543568681,13.6967926269242 -89.4194838405841,13.6966403555368 -89.4197357185831,13.6964434156765 -89.4199732530176,13.6962168726017 -89.4201682969902,13.6960685354257 -89.4202518269745,13.6959990796039 -89.420353653723,13.6958882616244 -89.4206806854026,13.695832438501 -89.4207928078209,13.6958130375968 -89.4209232269136,13.6957522744833 -89.4210383424014,13.6955681118558 -89.4210661572738,13.6950850823736 -89.4212019765756,13.6946376029725 -89.4210988859647,13.6946248842877 -89.4208129182277,13.6945773481091 -89.420663266313,13.694587964385 -89.4203008344911,13.6944999927197 -89.4202059792304,13.6943773714495 -89.420127337268,13.6940097807968 -89.4201727280002,13.6938720597007 -89.4201354062268,13.6934262744469 -89.4201387748058,13.693298116255 -89.4201203587138,13.6928704496218 -89.4200214802337,13.6928119301332 -89.4198286369793,13.6927177224652 -89.4195774632127,13.6924113055919 -89.4194777893881,13.6922750032486 -89.41941995043,13.692110836325 -89.4195250282887,13.6918604220059 -89.4196184778714,13.6918457804169 -89.4200729973452,13.6917864241753 -89.4201668213463,13.6918083859401 -89.4202611135252,13.6918761021011 -89.420340290438,13.691838720356 -89.4203343000436,13.6917106537218 -89.4203465594616,13.6915366495475 -89.4204275364272,13.6912178322675 -89.4205101284762,13.6910568677717 -89.4206675452382,13.6908905953514 -89.4208015175934,13.6907199763353 -89.4209597767966,13.6906360617447 -89.4209762236303,13.6904139696902 -89.4209988249256,13.6903359582612 -89.4210440274837,13.6901799354032 -89.4210889958681,13.6900010353382 -89.4211159487809,13.6898909500349 -89.4211805246104,13.6897988002096 -89.4212167427196,13.6896794724504 -89.4211787920193,13.6896295088871 -89.4210669534561,13.6896763621333 -89.4210019093677,13.6897227575141 -89.4208580168504,13.6898385627887 -89.4207417327449,13.6899083389071 -89.4206443068525,13.6899916582043 -89.4205795903006,13.6900700816024 -89.4204869373759,13.6901625059676 -89.4203978173847,13.6902571837015 -89.4203838258023,13.6902618964637 -89.4203473263349,13.6903537715177 -89.4203058665005,13.6904182396793 -89.4202596335517,13.6904736027205 -89.4202089083545,13.6905473133033 -89.4201441447081,13.690621161189 -89.4199903305729,13.6906821523128 -89.4198596797036,13.6907200373067 -89.4198269233696,13.6907203576547 -89.4197473722692,13.6907211356248 -89.4197143819223,13.6906985787292 -89.4196529403201,13.6906396928234 -89.4195533141796,13.6905079658227 -89.4195760563659,13.6904436807841 -89.4196455464461,13.690374362712 -89.4199151069125,13.6901909784472 -89.4199753783022,13.6901354781718 -89.4200398610666,13.6900341776716 -89.4200341986865,13.6899381390934 -89.4199934633145,13.689615936328 -89.4199548108158,13.6894973408515 -89.4199814366447,13.6893552274724 -89.4200744639691,13.6892994068713 -89.4201815763895,13.6892480243908 -89.42032565623,13.6891505212866 -89.4202857633078,13.688910676595 -89.4202287675413,13.6888288677815 -89.4202651265081,13.6887232664322 -89.4203024215715,13.6887091739724 -89.4204104230378,13.6887447248819 -89.4205181436655,13.6887528230764 -89.4206347082216,13.6887104998007 -89.4206614272477,13.6885775373092 -89.4206503363329,13.6884083374483 -89.4205644214706,13.6882444453495 -89.4204873272993,13.6880278440568 -89.4203134866577,13.6879609057177 -89.4202052983709,13.6879070529215 -89.4199664139737,13.6878865094201 -89.419755184966,13.6878245121445 -89.4195677742337,13.6878034649514 -89.4193235552419,13.6878333079177 -89.4191830790404,13.6878255293225 -89.4190568282156,13.6878359152236 -89.4188281913638,13.6879022126599 -89.418547800043,13.6879415602424 -89.4183981519402,13.6879521744731 -89.4183091960669,13.6879484678305 -89.4181452758321,13.6879363418278 -89.4179907144503,13.6879241242742 -89.4176486954319,13.6878862825027 -89.4174891741338,13.687846657613 -89.4173531435015,13.6878159549851 -89.417217066149,13.6877806768211 -89.4171973200985,13.6876801996207 -89.4172861824332,13.6876747557728 -89.417543831276,13.6876996945509 -89.4178441092527,13.6877745515925 -89.4180785948416,13.6878225956296 -89.4182992292716,13.6878890784116 -89.4185003977916,13.6878825366804 -89.4186359607919,13.6878674841413 -89.4188273494183,13.6878198545633 -89.419037642741,13.6877903436905 -89.4193481458366,13.6877209578424 -89.4194276959523,13.6877201801677 -89.4196245122493,13.6877457114272 -89.4197553019925,13.6877215531556 -89.4197834252888,13.6877258540855 -89.4199898811954,13.6877787462162 -89.4200369561581,13.6878057413148 -89.4202616150048,13.6878081202685 -89.4204159889601,13.6878020346179 -89.4204348002377,13.6878110024448 -89.4205247857258,13.6879153680948 -89.4206340038899,13.6880698804983 -89.4206676492502,13.6881564935303 -89.420682296071,13.6882158369806 -89.4207113088652,13.6883070712146 -89.4207214167251,13.6883801867608 -89.4207460310203,13.6884989194154 -89.4207378191077,13.6886111093183 -89.4207709496479,13.6886473924416 -89.4207483483387,13.6887254038451 -89.4207302860094,13.6887896431451 -89.4206184945036,13.6888410715835 -89.4205248589602,13.6888374115721 -89.4203464786633,13.6887842454638 -89.4203704375397,13.6888389219576 -89.4203863247929,13.6890195146971 -89.4204055106502,13.6890650860619 -89.4204484682128,13.6891470321249 -89.4204164610731,13.6892205596178 -89.4203611034949,13.6892988914001 -89.420174346879,13.6893419010971 -89.4200632102267,13.689457385576 -89.4200502951764,13.6895673335491 -89.4200797292444,13.6896997468652 -89.4201347371888,13.6900446895142 -89.4201356733475,13.6901361984053 -89.4200895808193,13.6902052877473 -89.4199732962626,13.6902750635697 -89.4198195290774,13.6903406300044 -89.419656777251,13.6904428914447 -89.4196618311233,13.6904794492533 -89.4196812510216,13.6905478979026 -89.4196910311778,13.6905889853947 -89.4197993611303,13.6906565645579 -89.4198696000609,13.6906604535487 -89.4199817202286,13.6906410534006 -89.4200976772815,13.690539249435 -89.4201438166647,13.6904747355272 -89.4202130256952,13.6903779646566 -89.4202546259857,13.6903272228397 -89.4203094688556,13.6901985611582 -89.4203741855373,13.6901201378109 -89.4204437688933,13.6900599704543 -89.4205225706874,13.6899859852051 -89.4206107781636,13.6899164838301 -89.420685087671,13.6898608460916 -89.4208011376784,13.6897681927887 -89.4209219138652,13.6896800691068 -89.4210566814828,13.6895872325894 -89.421346198547,13.6895249131315 -89.4213429239845,13.6896622221392 -89.4212924802687,13.6897633855084 -89.4212561217076,13.6898689869513 -89.4211871005792,13.6899840597862 -89.4211643822933,13.6900506326159 -89.421174865084,13.6901603516267 -89.4211665363851,13.6902611029034 -89.4211343420817,13.6903163287069 -89.4210836640411,13.6903946148605 -89.4210657890673,13.6904771559482 -89.4210996223845,13.6905820705876 -89.4211095900948,13.6906414597466 -89.4210916214694,13.6907148499541 -89.4210030861172,13.6907523234331 -89.4207979852881,13.6908321204477 -89.4206770212449,13.690901942397 -89.4205896796444,13.6910560895379 -89.4205583044649,13.6911913855511 -89.4205539527217,13.6912234594292 -89.4205127737553,13.6913153802942 -89.4204712202095,13.6913706976135 -89.4204624698814,13.6914302699278 -89.420449274157,13.6915127652352 -89.4204177350125,13.6916320471988 -89.420434231518,13.6918721206188 -89.4204256216439,13.691945419263 -89.4204074654884,13.6920005076936 -89.4203326403104,13.6920058155872 -89.4202055447483,13.6919338444486 -89.4200223420904,13.6918669979355 -89.4198683399182,13.6919096873383 -89.4197983346522,13.691928675634 -89.4196254739559,13.6919578216303 -89.4196452216776,13.6920582983751 -89.4196653438732,13.692195378678 -89.4197139878321,13.6923756511035 -89.4197056117792,13.6924718269856 -89.4198329884164,13.6925712510239 -89.4198849779894,13.6926210774393 -89.4200683216954,13.6927016502916 -89.4202046362565,13.6927598035504 -89.4202763506477,13.6929078187776 -89.4202580539588,13.6929491808821 -89.4202309600671,13.6930455398618 -89.4202503804622,13.6931139883913 -89.4202750422558,13.693237296452 -89.4202673687966,13.6934021039578 -89.4202964058342,13.6934956258483 -89.4203110531288,13.6935549692579 -89.420312176901,13.6936647798818 -89.4203039416131,13.6937746820702 -89.4202781119615,13.6939945780133 -89.4202600961683,13.6940633927846 -89.4202750712891,13.6941547642878 -89.4203323028064,13.694259450055 -89.4205691592458,13.6944241528709 -89.4207289195228,13.6944866521378 -89.4208414160113,13.6945038548406 -89.4209818961127,13.694511631823 -89.4211270557565,13.6945193629234 -89.4212205530029,13.6945092960129 -89.4214118990615,13.6944570882136 -89.4214359760912,13.6945232030416 -89.4214692014079,13.6945686367773 -89.4213261498806,13.6947668006321 -89.4212426674943,13.694840832138 -89.4212060742923,13.6949235564716 -89.421192785159,13.6949969009085 -89.421179542867,13.6950748207849 -89.4212016106446,13.6954017814617 -89.4211838761799,13.6954980489005 -89.4211479387535,13.6956448293888 -89.4209709829426,13.695845612982 -89.4208449623409,13.6958788776869 -89.4205882882606,13.6959500281574 -89.4204434555354,13.6959743249733 -89.4203316608159,13.6960257538281 -89.4202525762755,13.6960722866754 -89.4201136405458,13.6962154990281 -89.420002548035,13.6963355594043 -89.4198393016912,13.6965041769628 -89.4197934890931,13.6966007190972 -89.4197330757961,13.6966424932515 -89.4193983454135,13.6968608351736 -89.4191660273087,13.6970255521571 -89.4190870826108,13.6970858110578 -89.418971028694,13.6971784642122 -89.4188407018132,13.6972483773949 -89.4187943269912,13.6972900140729 -89.4186872108215,13.6973413965752 -89.4185847274079,13.6973881578293 -89.4184214089671,13.6974355139234 -89.4184092187622,13.6976163813836 -89.418489006274,13.6976384806967 -89.4185782934467,13.6976742147972 -89.418939560235,13.6977621997116 -89.4190750350966,13.6977379951185 -89.4192244551335,13.6977045022408 -89.4193132273878,13.6976899061629 -89.4195090220801,13.6976147763569 -89.4196256378217,13.6975770282746 -89.4198119325794,13.697488263495 -89.4199191889707,13.6974506068628 -89.4200596709019,13.6974583840829 -89.4201584578636,13.6975077523293 -89.4202029629826,13.6977406877153 -89.4201669779858,13.6978828927526 -89.4201023063808,13.6979658918061 -89.4200189630841,13.6980536494578 -89.4198469410462,13.6981651542989 -89.4198036302688,13.6980488926019 -89.4196272094431,13.6981878957535 -89.4195677790988,13.6983257542471 -89.4195645042624,13.6984630633338 -89.4196314005166,13.6985973979211 -89.4196693058706,13.6986427860619 -89.4197271005461,13.6988023771123 -89.4197165037401,13.699138809516 -89.4196379332458,13.69923567222 -89.4195464008262,13.699437907461 -89.419432570472,13.6997478945393 -89.4194279376442,13.6997525157685 -89.4191724763002,13.6999426270633 -89.4190235699271,13.700026450031 -89.4188414844141,13.7000694143514 -89.4187389999517,13.7001161758509 -89.4186508821498,13.7001948281189 -89.4185686377149,13.7003901084691 -89.4185749558979,13.7005502033085 -89.4186093989935,13.7007145989516 -89.418816885611,13.7009814036789 -89.4188428345636,13.7010017413997 -89.4190248519582,13.7011807089011 -89.4192109761096,13.701297350251 -89.4192585075418,13.7012749100435 -89.4195961943643,13.70134482019 -89.4202056063649,13.7013274161553 -89.420604832085,13.7014653609633 -89.4207910419008,13.7018250337738 -89.4209071974634,13.702199119988 -89.4210231977729,13.7022347939013 -89.4212169334442,13.7013678498896 -89.4212708451617,13.7012694043412 -89.4211691363234,13.7011628020218 -89.4212066590777,13.7010930035128 -89.4212423155016,13.7009187703227 -89.4212687062905,13.7007537796551 -89.4212673002662,13.700616516551 -89.421321206611,13.7003963457036 -89.4213936440483,13.7001576898148 -89.4214570032827,13.6999465781928 -89.4214551285561,13.699763560734 -89.4214538162638,13.699635448511 -89.421479738241,13.6994247034882 -89.4214685980251,13.6992509285435 -89.4214239906832,13.6985512532734 -89.4213845854805,13.6983594514634 -89.4213449929277,13.698149347884 -89.4212501206428,13.6978800846897</coordinates></LinearRing></outerBoundaryIs><innerBoundaryIs><LinearRing><coordinates>-89.4211553882957,13.6943154581594 -89.4211189824795,13.6944164842333 -89.4210743862774,13.6944031930121 -89.4209899202689,13.6943811401856 -89.4209642061924,13.6943836797915 -89.4207629857486,13.6943856489891 -89.4206854454079,13.6943543764803 -89.4206385094565,13.6943411080703 -89.4206267736347,13.6941089960029 -89.4206427071231,13.6940653690448 -89.4206205252444,13.6939557645041 -89.4206312874663,13.6938641412014 -89.420675134243,13.6938042254626 -89.4207311013239,13.6937853742136 -89.420794228195,13.6937801805885 -89.420845679645,13.6937773891507 -89.4209816905456,13.6938058014797 -89.4210375639133,13.693777799285 -89.4210860900936,13.6937178376962 -89.421104855058,13.6937222299462 -89.4211351080703,13.69370591822 -89.4211575689165,13.6936141804325 -89.4211731275611,13.6935339499423 -89.4211798189698,13.6935018531664 -89.4212595817086,13.6935216640589 -89.4213718669239,13.6935182771151 -89.4213863505243,13.6935616063793 -89.4214255551582,13.6937339627739 -89.4214280120381,13.693745378469 -89.4214285039211,13.6937934205765 -89.4214292066145,13.6938620521583 -89.4214364367232,13.6938825729261 -89.4215093911194,13.6939230418925 -89.4214960552374,13.6939918108877 -89.4215151950151,13.694032806609 -89.4215322995515,13.6941035655802 -89.4215793760248,13.6941305601347 -89.4216664628408,13.6941800424881 -89.4217046956471,13.6942574584479 -89.4215483995568,13.6943047474415 -89.4214407701036,13.6943058010016 -89.4213262618662,13.6943206495377 -89.4211553882957,13.6943154581594</coordinates></LinearRing></innerBoundaryIs><innerBoundaryIs><LinearRing><coordinates>-89.4208257620988,13.695046252048 -89.4208192569096,13.694982253128 -89.4208317275627,13.6949432359442 -89.4208489597362,13.6949121799842 -89.420862799337,13.6948925969723 -89.420895614773,13.6948979956918 -89.4209589292901,13.6949111037364 -89.4209837311626,13.6949337404908 -89.4209606846928,13.6949682852862 -89.4209466928645,13.694972998123 -89.4209354038302,13.69501314772 -89.4209097950755,13.6950259820718 -89.420880805459,13.6950514332304 -89.4208257620988,13.695046252048</coordinates></LinearRing></innerBoundaryIs><innerBoundaryIs><LinearRing><coordinates>-89.4210205352382,13.6948716056561 -89.4208926192417,13.6948339624274 -89.4209025978737,13.6947800979608 -89.4209148460198,13.6947193474353 -89.4209664264779,13.694729138399 -89.4210332974545,13.6947467875225 -89.4210476522944,13.6947775343413 -89.4210205352382,13.6948716056561</coordinates></LinearRing></innerBoundaryIs><innerBoundaryIs><LinearRing><coordinates>-89.4207193947868,13.6949420473148 -89.4207337954146,13.6948629721297 -89.4207631586933,13.6947597270488 -89.4207840761704,13.6947457946502 -89.4208345452931,13.6947613163908 -89.4207815160062,13.6949528791328 -89.4207193947868,13.6949420473148</coordinates></LinearRing></innerBoundaryIs><innerBoundaryIs><LinearRing><coordinates>-89.4220957121746,13.6948659422091 -89.4219130691166,13.6948540028181 -89.4219205069968,13.6946663182771 -89.4221056068367,13.6946896733673 -89.4220957121746,13.6948659422091</coordinates></LinearRing></innerBoundaryIs><innerBoundaryIs><LinearRing><coordinates>-89.4202830136387,13.6955166842927 -89.4200830398121,13.6954881348831 -89.4201258416957,13.6954022992984 -89.4201129882374,13.6953658178491 -89.4201064366407,13.6953353759433 -89.4201310197178,13.6952985282191 -89.4201307075425,13.6952680252681 -89.4201419376831,13.6951458913723 -89.4203352971564,13.6951378982963 -89.4202830136387,13.6955166842927</coordinates></LinearRing></innerBoundaryIs></Polygon></MultiGeometry>
  </Placemark>
  <Placemark>
	<name>J.J. BORJA NATHAN S.A.</name>
	<Style><LineStyle><color>ff0000ff</color></LineStyle><PolyStyle><fill>0</fill></PolyStyle></Style>
	<ExtendedData><SchemaData schemaUrl="#Limites_totales">
		<SimpleData name="altitudeMode">clampToGround</SimpleData>
		<SimpleData name="tomas">0</SimpleData>
		<SimpleData name="fch_polig">06/12/2019</SimpleData>
		<SimpleData name="Departamen">LA LIBERTAD</SimpleData>
		<SimpleData name="area_mz_1">32.98</SimpleData>
		<SimpleData name="área">0</SimpleData>
		<SimpleData name="fch_imag">04/12/2019</SimpleData>
		<SimpleData name="tipo_imag">DRONE</SimpleData>
		<SimpleData name="Nombre_del">J.J. BORJA NATHAN S.A.</SimpleData>
		<SimpleData name="Número_Ú">856819</SimpleData>
		<SimpleData name="Rubro">CAFE</SimpleData>
		<SimpleData name="FID">2</SimpleData>
		<SimpleData name="Área_Ha">0</SimpleData>
		<SimpleData name="Categoría">PLANTA SOLAR</SimpleData>
		<SimpleData name="Field_1">J.J. BORJA NATHAN S.A.</SimpleData>
	</SchemaData></ExtendedData>
      <MultiGeometry><Polygon><outerBoundaryIs><LinearRing><coordinates>-89.4146410043979,13.71421705867 -89.4166409415767,13.7152112657221 -89.4177931169867,13.7158775963374 -89.4181163297688,13.7155423082907 -89.4183885053403,13.7146976781877 -89.4184813422483,13.7137083749244 -89.4184739386145,13.7129854551507 -89.4184765511889,13.7123264999016 -89.4184110119166,13.7104967809804 -89.4182345732987,13.7097206043688 -89.4179215812421,13.7093209875468 -89.4174063292976,13.7092802692849 -89.4170136898304,13.7093298688614 -89.4164672708768,13.7099026250468 -89.4158836910433,13.710503199178 -89.4152988917574,13.7109848106091 -89.4146227372397,13.7116869575668 -89.4144641336541,13.7119676381343 -89.4144411059931,13.7124620617407 -89.4145016119476,13.7138022127771 -89.4145600170242,13.7140212857339 -89.4146410043979,13.71421705867</coordinates></LinearRing></outerBoundaryIs></Polygon></MultiGeometry>
  </Placemark>
  <Placemark>
	<name>J.J. BORJA NATHAN S.A.</name>
	<Style><LineStyle><color>ff0000ff</color></LineStyle><PolyStyle><fill>0</fill></PolyStyle></Style>
	<ExtendedData><SchemaData schemaUrl="#Limites_totales">
		<SimpleData name="altitudeMode">clampToGround</SimpleData>
		<SimpleData name="tomas">0</SimpleData>
		<SimpleData name="fch_polig">06/12/2019</SimpleData>
		<SimpleData name="Departamen">LA LIBERTAD</SimpleData>
		<SimpleData name="area_mz_1">2.36</SimpleData>
		<SimpleData name="área">0</SimpleData>
		<SimpleData name="fch_imag">04/12/2019</SimpleData>
		<SimpleData name="tipo_imag">DRONE</SimpleData>
		<SimpleData name="Nombre_del">J.J. BORJA NATHAN S.A.</SimpleData>
		<SimpleData name="Número_Ú">856819</SimpleData>
		<SimpleData name="Rubro">CAFE</SimpleData>
		<SimpleData name="FID">3</SimpleData>
		<SimpleData name="Área_Ha">0</SimpleData>
		<SimpleData name="Categoría">PASTO</SimpleData>
		<SimpleData name="Field_1">J.J. BORJA NATHAN S.A.</SimpleData>
	</SchemaData></ExtendedData>
      <MultiGeometry><Polygon><outerBoundaryIs><LinearRing><coordinates>-89.4179696467606,13.7055338175299 -89.4179874788481,13.7055085078494 -89.4181547021026,13.7053848479256 -89.4183404569419,13.705242703004 -89.4183708437239,13.7051630900683 -89.4183944913097,13.7050347334307 -89.4184427229891,13.7048695290552 -89.4184285578498,13.7047049351277 -89.4185355631295,13.7046227788543 -89.4184502373327,13.7046129308939 -89.4183707283047,13.7046182846398 -89.4180308375472,13.7046193215764 -89.4177380251714,13.7046473530372 -89.4174247978588,13.7049672978137 -89.4173624167326,13.7050456982558 -89.4172436563987,13.7053317097776 -89.4170329615267,13.7056094684347 -89.4169371315127,13.7058494966106 -89.4169730609306,13.706159162997 -89.4170674524586,13.7062360304077 -89.417317517738,13.7064326368758 -89.4173268357264,13.7064435717755 -89.41734167218,13.7064300054473 -89.4173970183053,13.706350148461 -89.4174217275363,13.7063255019708 -89.4175271786488,13.7062634585451 -89.4175508891341,13.7061412025012 -89.4176003732331,13.7060918439509 -89.4175871102469,13.7060218746994 -89.4176168419384,13.7058782055406 -89.4176716572818,13.7057464934587 -89.4178665850007,13.7055859554725 -89.4179099195751,13.7055519749591 -89.4179696467606,13.7055338175299</coordinates></LinearRing></outerBoundaryIs></Polygon></MultiGeometry>
  </Placemark>
  <Placemark>
	<name>J.J. BORJA NATHAN S.A.</name>
	<Style><LineStyle><color>ff0000ff</color></LineStyle><PolyStyle><fill>0</fill></PolyStyle></Style>
	<ExtendedData><SchemaData schemaUrl="#Limites_totales">
		<SimpleData name="altitudeMode">clampToGround</SimpleData>
		<SimpleData name="tomas">0</SimpleData>
		<SimpleData name="fch_polig">06/12/2019</SimpleData>
		<SimpleData name="Departamen">LA LIBERTAD</SimpleData>
		<SimpleData name="area_mz_1">4.27</SimpleData>
		<SimpleData name="área">0</SimpleData>
		<SimpleData name="fch_imag">04/12/2019</SimpleData>
		<SimpleData name="tipo_imag">DRONE</SimpleData>
		<SimpleData name="Nombre_del">J.J. BORJA NATHAN S.A.</SimpleData>
		<SimpleData name="Número_Ú">856819</SimpleData>
		<SimpleData name="Rubro">CAFE</SimpleData>
		<SimpleData name="FID">4</SimpleData>
		<SimpleData name="Área_Ha">0</SimpleData>
		<SimpleData name="Categoría">MAIZ</SimpleData>
		<SimpleData name="Field_1">J.J. BORJA NATHAN S.A.</SimpleData>
	</SchemaData></ExtendedData>
      <MultiGeometry><Polygon><outerBoundaryIs><LinearRing><coordinates>-89.4203489273918,13.7028743576899 -89.4203248390141,13.7027447774884 -89.4203056750311,13.7027014940642 -89.4202722933329,13.7024123952925 -89.4201994388601,13.7021534262278 -89.4200361269284,13.7019731327986 -89.4199042521526,13.7018920573526 -89.4196589757195,13.7017057019473 -89.4194896636586,13.7016249925991 -89.4193014338913,13.7015250206394 -89.4191528762694,13.7014143645829 -89.4191006830553,13.7013679212794 -89.4190678110374,13.701391173358 -89.4187682640182,13.701389527926 -89.4185574548477,13.7013974812761 -89.4185732371151,13.70146378024 -89.4186055899361,13.7015763360602 -89.4186348229983,13.7016889223882 -89.4186603292464,13.7020471186371 -89.4187087182739,13.7022022259743 -89.4188640413445,13.702745238838 -89.4188930562294,13.7028364730091 -89.4189320237685,13.7029855712219 -89.4189830023194,13.7030887928801 -89.4190494238953,13.7031766104092 -89.4191600537813,13.7033158555429 -89.4193074346682,13.7033876277529 -89.4193984402847,13.7034385973706 -89.4195669105323,13.7034369486128 -89.4196449684708,13.7034422858485 -89.4197290474251,13.7034262099297 -89.4198410485621,13.7033946076837 -89.4200024045084,13.7033076114922 -89.4200520716872,13.7032827205195 -89.4201045775454,13.7032303463596 -89.4201569271978,13.7031627207267 -89.4202341416148,13.7030856998794 -89.4202924809212,13.7029936108034 -89.4203489273918,13.7028743576899</coordinates></LinearRing></outerBoundaryIs></Polygon></MultiGeometry>
  </Placemark>
  <Placemark>
	<name>J.J. BORJA NATHAN S.A.</name>
	<Style><LineStyle><color>ff0000ff</color></LineStyle><PolyStyle><fill>0</fill></PolyStyle></Style>
	<ExtendedData><SchemaData schemaUrl="#Limites_totales">
		<SimpleData name="altitudeMode">clampToGround</SimpleData>
		<SimpleData name="tomas">0</SimpleData>
		<SimpleData name="fch_polig">06/12/2019</SimpleData>
		<SimpleData name="Departamen">LA LIBERTAD</SimpleData>
		<SimpleData name="area_mz_1">1</SimpleData>
		<SimpleData name="área">0</SimpleData>
		<SimpleData name="fch_imag">04/12/2019</SimpleData>
		<SimpleData name="tipo_imag">DRONE</SimpleData>
		<SimpleData name="Nombre_del">J.J. BORJA NATHAN S.A.</SimpleData>
		<SimpleData name="Número_Ú">856819</SimpleData>
		<SimpleData name="Rubro">CAFE</SimpleData>
		<SimpleData name="FID">6</SimpleData>
		<SimpleData name="Área_Ha">0</SimpleData>
		<SimpleData name="Categoría">CONSTRUCCION</SimpleData>
		<SimpleData name="Field_1">J.J. BORJA NATHAN S.A.</SimpleData>
	</SchemaData></ExtendedData>
      <MultiGeometry><Polygon><outerBoundaryIs><LinearRing><coordinates>-89.4211553882957,13.6943154581594 -89.4213262618662,13.6943206495377 -89.4214407701036,13.6943058010016 -89.4215483995568,13.6943047474415 -89.4217046956471,13.6942574584479 -89.4216664628408,13.6941800424881 -89.4215793760248,13.6941305601347 -89.4215322995515,13.6941035655802 -89.4215151950151,13.694032806609 -89.4214960552374,13.6939918108877 -89.4215093911194,13.6939230418925 -89.4214364367232,13.6938825729261 -89.4214292066145,13.6938620521583 -89.4214285039211,13.6937934205765 -89.4214280120381,13.693745378469 -89.4214255551582,13.6937339627739 -89.4213863505243,13.6935616063793 -89.4213718669239,13.6935182771151 -89.4212595817086,13.6935216640589 -89.4211798189698,13.6935018531664 -89.4211731275611,13.6935339499423 -89.4211575689165,13.6936141804325 -89.4211351080703,13.69370591822 -89.421104855058,13.6937222299462 -89.4210860900936,13.6937178376962 -89.4210375639133,13.693777799285 -89.4209816905456,13.6938058014797 -89.420845679645,13.6937773891507 -89.420794228195,13.6937801805885 -89.4207311013239,13.6937853742136 -89.420675134243,13.6938042254626 -89.4206312874663,13.6938641412014 -89.4206205252444,13.6939557645041 -89.4206427071231,13.6940653690448 -89.4206267736347,13.6941089960029 -89.4206385094565,13.6943411080703 -89.4206854454079,13.6943543764803 -89.4207629857486,13.6943856489891 -89.4209642061924,13.6943836797915 -89.4209899202689,13.6943811401856 -89.4210743862774,13.6944031930121 -89.4211189824795,13.6944164842333 -89.4211553882957,13.6943154581594</coordinates></LinearRing></outerBoundaryIs></Polygon></MultiGeometry>
  </Placemark>
  <Placemark>
	<name>J.J. BORJA NATHAN S.A.</name>
	<Style><LineStyle><color>ff0000ff</color></LineStyle><PolyStyle><fill>0</fill></PolyStyle></Style>
	<ExtendedData><SchemaData schemaUrl="#Limites_totales">
		<SimpleData name="altitudeMode">clampToGround</SimpleData>
		<SimpleData name="tomas">0</SimpleData>
		<SimpleData name="fch_polig">06/12/2019</SimpleData>
		<SimpleData name="Departamen">LA LIBERTAD</SimpleData>
		<SimpleData name="area_mz_1">0.01</SimpleData>
		<SimpleData name="área">0</SimpleData>
		<SimpleData name="fch_imag">04/12/2019</SimpleData>
		<SimpleData name="tipo_imag">DRONE</SimpleData>
		<SimpleData name="Nombre_del">J.J. BORJA NATHAN S.A.</SimpleData>
		<SimpleData name="Número_Ú">856819</SimpleData>
		<SimpleData name="Rubro">CAFE</SimpleData>
		<SimpleData name="FID">7</SimpleData>
		<SimpleData name="Área_Ha">0</SimpleData>
		<SimpleData name="Categoría">CONSTRUCCION</SimpleData>
		<SimpleData name="Field_1">J.J. BORJA NATHAN S.A.</SimpleData>
	</SchemaData></ExtendedData>
      <MultiGeometry><Polygon><outerBoundaryIs><LinearRing><coordinates>-89.4208243243684,13.6945486371178 -89.4208304016144,13.6945136864152 -89.4207553590672,13.6944978331524 -89.4206650554277,13.6944912810023 -89.4206542751909,13.6945239897761 -89.4206620023965,13.6945359258973 -89.4206872779119,13.6945476902969 -89.4208243243684,13.6945486371178</coordinates></LinearRing></outerBoundaryIs></Polygon></MultiGeometry>
  </Placemark>
  <Placemark>
	<name>J.J. BORJA NATHAN S.A.</name>
	<Style><LineStyle><color>ff0000ff</color></LineStyle><PolyStyle><fill>0</fill></PolyStyle></Style>
	<ExtendedData><SchemaData schemaUrl="#Limites_totales">
		<SimpleData name="altitudeMode">clampToGround</SimpleData>
		<SimpleData name="tomas">0</SimpleData>
		<SimpleData name="fch_polig">06/12/2019</SimpleData>
		<SimpleData name="Departamen">LA LIBERTAD</SimpleData>
		<SimpleData name="area_mz_1">0.03</SimpleData>
		<SimpleData name="área">0</SimpleData>
		<SimpleData name="fch_imag">04/12/2019</SimpleData>
		<SimpleData name="tipo_imag">DRONE</SimpleData>
		<SimpleData name="Nombre_del">J.J. BORJA NATHAN S.A.</SimpleData>
		<SimpleData name="Número_Ú">856819</SimpleData>
		<SimpleData name="Rubro">CAFE</SimpleData>
		<SimpleData name="FID">8</SimpleData>
		<SimpleData name="Área_Ha">0</SimpleData>
		<SimpleData name="Categoría">CONSTRUCCION</SimpleData>
		<SimpleData name="Field_1">J.J. BORJA NATHAN S.A.</SimpleData>
	</SchemaData></ExtendedData>
      <MultiGeometry><Polygon><outerBoundaryIs><LinearRing><coordinates>-89.4208257620988,13.695046252048 -89.420880805459,13.6950514332304 -89.4209097950755,13.6950259820718 -89.4209354038302,13.69501314772 -89.4209466928645,13.694972998123 -89.4209606846928,13.6949682852862 -89.4209837311626,13.6949337404908 -89.4209589292901,13.6949111037364 -89.420895614773,13.6948979956918 -89.420862799337,13.6948925969723 -89.4208489597362,13.6949121799842 -89.4208317275627,13.6949432359442 -89.4208192569096,13.694982253128 -89.4208257620988,13.695046252048</coordinates></LinearRing></outerBoundaryIs></Polygon></MultiGeometry>
  </Placemark>
  <Placemark>
	<name>J.J. BORJA NATHAN S.A.</name>
	<Style><LineStyle><color>ff0000ff</color></LineStyle><PolyStyle><fill>0</fill></PolyStyle></Style>
	<ExtendedData><SchemaData schemaUrl="#Limites_totales">
		<SimpleData name="altitudeMode">clampToGround</SimpleData>
		<SimpleData name="tomas">0</SimpleData>
		<SimpleData name="fch_polig">06/12/2019</SimpleData>
		<SimpleData name="Departamen">LA LIBERTAD</SimpleData>
		<SimpleData name="area_mz_1">0.03</SimpleData>
		<SimpleData name="área">0</SimpleData>
		<SimpleData name="fch_imag">04/12/2019</SimpleData>
		<SimpleData name="tipo_imag">DRONE</SimpleData>
		<SimpleData name="Nombre_del">J.J. BORJA NATHAN S.A.</SimpleData>
		<SimpleData name="Número_Ú">856819</SimpleData>
		<SimpleData name="Rubro">CAFE</SimpleData>
		<SimpleData name="FID">9</SimpleData>
		<SimpleData name="Área_Ha">0</SimpleData>
		<SimpleData name="Categoría">CONSTRUCCION</SimpleData>
		<SimpleData name="Field_1">J.J. BORJA NATHAN S.A.</SimpleData>
	</SchemaData></ExtendedData>
      <MultiGeometry><Polygon><outerBoundaryIs><LinearRing><coordinates>-89.4210205352382,13.6948716056561 -89.4210476522944,13.6947775343413 -89.4210332974545,13.6947467875225 -89.4209664264779,13.694729138399 -89.4209148460198,13.6947193474353 -89.4209025978737,13.6947800979608 -89.4208926192417,13.6948339624274 -89.4210205352382,13.6948716056561</coordinates></LinearRing></outerBoundaryIs></Polygon></MultiGeometry>
  </Placemark>
  <Placemark>
	<name>J.J. BORJA NATHAN S.A.</name>
	<Style><LineStyle><color>ff0000ff</color></LineStyle><PolyStyle><fill>0</fill></PolyStyle></Style>
	<ExtendedData><SchemaData schemaUrl="#Limites_totales">
		<SimpleData name="altitudeMode">clampToGround</SimpleData>
		<SimpleData name="tomas">0</SimpleData>
		<SimpleData name="fch_polig">06/12/2019</SimpleData>
		<SimpleData name="Departamen">LA LIBERTAD</SimpleData>
		<SimpleData name="area_mz_1">0.02</SimpleData>
		<SimpleData name="área">0</SimpleData>
		<SimpleData name="fch_imag">04/12/2019</SimpleData>
		<SimpleData name="tipo_imag">DRONE</SimpleData>
		<SimpleData name="Nombre_del">J.J. BORJA NATHAN S.A.</SimpleData>
		<SimpleData name="Número_Ú">856819</SimpleData>
		<SimpleData name="Rubro">CAFE</SimpleData>
		<SimpleData name="FID">10</SimpleData>
		<SimpleData name="Área_Ha">0</SimpleData>
		<SimpleData name="Categoría">CONSTRUCCION</SimpleData>
		<SimpleData name="Field_1">J.J. BORJA NATHAN S.A.</SimpleData>
	</SchemaData></ExtendedData>
      <MultiGeometry><Polygon><outerBoundaryIs><LinearRing><coordinates>-89.4207193947868,13.6949420473148 -89.4207815160062,13.6949528791328 -89.4208345452931,13.6947613163908 -89.4207840761704,13.6947457946502 -89.4207631586933,13.6947597270488 -89.4207337954146,13.6948629721297 -89.4207193947868,13.6949420473148</coordinates></LinearRing></outerBoundaryIs></Polygon></MultiGeometry>
  </Placemark>
  <Placemark>
	<name>J.J. BORJA NATHAN S.A.</name>
	<Style><LineStyle><color>ff0000ff</color></LineStyle><PolyStyle><fill>0</fill></PolyStyle></Style>
	<ExtendedData><SchemaData schemaUrl="#Limites_totales">
		<SimpleData name="altitudeMode">clampToGround</SimpleData>
		<SimpleData name="tomas">0</SimpleData>
		<SimpleData name="fch_polig">06/12/2019</SimpleData>
		<SimpleData name="Departamen">LA LIBERTAD</SimpleData>
		<SimpleData name="area_mz_1">0.98</SimpleData>
		<SimpleData name="área">0</SimpleData>
		<SimpleData name="fch_imag">04/12/2019</SimpleData>
		<SimpleData name="tipo_imag">DRONE</SimpleData>
		<SimpleData name="Nombre_del">J.J. BORJA NATHAN S.A.</SimpleData>
		<SimpleData name="Número_Ú">856819</SimpleData>
		<SimpleData name="Rubro">CAFE</SimpleData>
		<SimpleData name="FID">12</SimpleData>
		<SimpleData name="Área_Ha">0</SimpleData>
		<SimpleData name="Categoría">PASTO</SimpleData>
		<SimpleData name="Field_1">J.J. BORJA NATHAN S.A.</SimpleData>
	</SchemaData></ExtendedData>
      <MultiGeometry><Polygon><outerBoundaryIs><LinearRing><coordinates>-89.4160566894995,13.7074545432626 -89.4160524256759,13.7075523761493 -89.4160178881217,13.707836420152 -89.4158778920682,13.7082215828603 -89.4159110379742,13.7082575784306 -89.416026879485,13.7082961038927 -89.4160987617729,13.7083076035966 -89.4161768214524,13.7083129416737 -89.4162830225498,13.7083241058028 -89.4164549597698,13.7083559813889 -89.416542254319,13.7083490266309 -89.4166981864517,13.7083414006737 -89.416769507062,13.7082979947833 -89.4167580410825,13.7080921910898 -89.4167445005964,13.7079886029355 -89.4167092769547,13.7079004798283 -89.4167137693493,13.7077296020276 -89.4166637888248,13.7077239895346 -89.4166043238476,13.7077062673479 -89.4165446404728,13.7076671930443 -89.4164750982789,13.7075794054288 -89.41633738674,13.7075380433421 -89.4160566894995,13.7074545432626</coordinates></LinearRing></outerBoundaryIs></Polygon></MultiGeometry>
  </Placemark>
  <Placemark>
	<name>J.J. BORJA NATHAN S.A.</name>
	<Style><LineStyle><color>ff0000ff</color></LineStyle><PolyStyle><fill>0</fill></PolyStyle></Style>
	<ExtendedData><SchemaData schemaUrl="#Limites_totales">
		<SimpleData name="altitudeMode">clampToGround</SimpleData>
		<SimpleData name="tomas">0</SimpleData>
		<SimpleData name="fch_polig">06/12/2019</SimpleData>
		<SimpleData name="Departamen">LA LIBERTAD</SimpleData>
		<SimpleData name="area_mz_1">0.12</SimpleData>
		<SimpleData name="área">0</SimpleData>
		<SimpleData name="fch_imag">04/12/2019</SimpleData>
		<SimpleData name="tipo_imag">DRONE</SimpleData>
		<SimpleData name="Nombre_del">J.J. BORJA NATHAN S.A.</SimpleData>
		<SimpleData name="Número_Ú">856819</SimpleData>
		<SimpleData name="Rubro">CAFE</SimpleData>
		<SimpleData name="FID">14</SimpleData>
		<SimpleData name="Área_Ha">0</SimpleData>
		<SimpleData name="Categoría">CONSTRUCCION</SimpleData>
		<SimpleData name="Field_1">J.J. BORJA NATHAN S.A.</SimpleData>
	</SchemaData></ExtendedData>
      <MultiGeometry><Polygon><outerBoundaryIs><LinearRing><coordinates>-89.4202830136387,13.6955166842927 -89.4203352971564,13.6951378982963 -89.4201419376831,13.6951458913723 -89.4201307075425,13.6952680252681 -89.4201310197178,13.6952985282191 -89.4201064366407,13.6953353759433 -89.4201129882374,13.6953658178491 -89.4201258416957,13.6954022992984 -89.4200830398121,13.6954881348831 -89.4202830136387,13.6955166842927</coordinates></LinearRing></outerBoundaryIs></Polygon></MultiGeometry>
  </Placemark>
  <Placemark>
	<name>J.J. BORJA NATHAN S.A.</name>
	<Style><LineStyle><color>ff0000ff</color></LineStyle><PolyStyle><fill>0</fill></PolyStyle></Style>
	<ExtendedData><SchemaData schemaUrl="#Limites_totales">
		<SimpleData name="altitudeMode">clampToGround</SimpleData>
		<SimpleData name="tomas">0</SimpleData>
		<SimpleData name="fch_polig">06/12/2019</SimpleData>
		<SimpleData name="Departamen">LA LIBERTAD</SimpleData>
		<SimpleData name="area_mz_1">1.85</SimpleData>
		<SimpleData name="área">0</SimpleData>
		<SimpleData name="fch_imag">04/12/2019</SimpleData>
		<SimpleData name="tipo_imag">DRONE</SimpleData>
		<SimpleData name="Nombre_del">J.J. BORJA NATHAN S.A.</SimpleData>
		<SimpleData name="Número_Ú">856819</SimpleData>
		<SimpleData name="Rubro">CAFE</SimpleData>
		<SimpleData name="FID">1</SimpleData>
		<SimpleData name="Área_Ha">0</SimpleData>
		<SimpleData name="Categoría">CAMINO 2</SimpleData>
		<SimpleData name="Field_1">J.J. BORJA NATHAN S.A.</SimpleData>
	</SchemaData></ExtendedData>
      <MultiGeometry><Polygon><outerBoundaryIs><LinearRing><coordinates>-89.4179269312689,13.7093278182824 -89.4182345732987,13.7097206043688 -89.4184110119166,13.7104967809804 -89.4184407401756,13.7113267436194 -89.4185533947584,13.7113179056185 -89.4186338008998,13.7112985761969 -89.4186088388987,13.7112475804384 -89.4185823354861,13.710944686439 -89.4185884742048,13.710630033177 -89.4186038790161,13.7103061374164 -89.4184841768742,13.7100430506871 -89.418347557396,13.7097847053127 -89.4182183088164,13.7095034081724 -89.4181607688385,13.7093689821016 -89.4180015471522,13.7091886479215 -89.4177832887254,13.7088990694974 -89.4175975559339,13.7086434918973 -89.4174319472474,13.7084677955821 -89.4173800817388,13.7082017564325 -89.4173069465072,13.70791533371 -89.4172601591093,13.7076881400161 -89.4172640196724,13.7076080239084 -89.4173105478355,13.7073524621026 -89.4173563628545,13.7072559199923 -89.4174406804843,13.7070343078745 -89.4174534792821,13.7069129212013 -89.4174440134807,13.7066739227257 -89.4174122605822,13.7065438199747 -89.417317517738,13.7064326368758 -89.4170674524586,13.7062360304077 -89.4169730609306,13.706159162997 -89.4169371315127,13.7058494966106 -89.4170329615267,13.7056094684347 -89.4172436563987,13.7053317097776 -89.4173624167326,13.7050456982558 -89.4174247978588,13.7049672978137 -89.4177380251714,13.7046473530372 -89.4180308375472,13.7046193215764 -89.4183707283047,13.7046182846398 -89.4184502373327,13.7046129308939 -89.4187243542678,13.7046445682586 -89.4190242679185,13.7046244739824 -89.419159559217,13.7045819669353 -89.4194634380072,13.7044920508645 -89.4195937214257,13.7044175613186 -89.4198323038106,13.7041784232504 -89.4201789171955,13.7039199238534 -89.4203231455203,13.7038361456909 -89.4204797844446,13.7035932335211 -89.4205115668783,13.7032691776185 -89.4204567511284,13.7029436816038 -89.4203505525108,13.7026278403661 -89.4203363347286,13.7023820250353 -89.4202282887459,13.7021142486866 -89.4201854920955,13.702048317081 -89.4199767868333,13.7018341486801 -89.4198590917738,13.701766662108 -89.4197340727658,13.7016695037946 -89.419602151415,13.7015838526981 -89.4195267611349,13.7015342555408 -89.4193101371784,13.7014036740935 -89.4191895970873,13.7013074435615 -89.4191793274929,13.7013122919677 -89.4191006830553,13.7013679212794 -89.4191528762694,13.7014143645829 -89.4193014338913,13.7015250206394 -89.4194896636586,13.7016249925991 -89.4196589757195,13.7017057019473 -89.4199042521526,13.7018920573526 -89.4200361269284,13.7019731327986 -89.4201994388601,13.7021534262278 -89.4202722933329,13.7024123952925 -89.4203056750311,13.7027014940642 -89.4203248390141,13.7027447774884 -89.4203768460479,13.7030245420927 -89.4204223108476,13.7031224787861 -89.4204242438279,13.7033112156341 -89.4204319663241,13.7033797784896 -89.4204305636819,13.7034713101706 -89.4203206517882,13.7037069009965 -89.4202464789603,13.7037762656214 -89.4201910250274,13.7038454469774 -89.4201098325137,13.7039148802947 -89.4200284525303,13.7039660118336 -89.4199377833114,13.7040240981303 -89.4198427154161,13.704109682851 -89.4195279349626,13.7043346950379 -89.419483735021,13.7043602950871 -89.4194023547295,13.7044114264658 -89.4191710355676,13.7045029203362 -89.4191126557739,13.7045149313913 -89.4188557377494,13.704563204438 -89.4187871324356,13.7045478600635 -89.4187098696691,13.704544040131 -89.4183677562859,13.7045565390203 -89.4182859073924,13.7045619156267 -89.4179720128534,13.704587865634 -89.4178456594054,13.7045891015002 -89.4177099464288,13.7045904288403 -89.4175814989861,13.7046729073765 -89.417435853527,13.7048470721639 -89.4173047152272,13.7050668540972 -89.4171508330974,13.7053509210894 -89.4169523757136,13.7056239841233 -89.4168708657724,13.7058913277094 -89.4168713337821,13.7059370822074 -89.4168719187966,13.7059942753296 -89.4168842500901,13.706055929506 -89.4168963239811,13.7060924187073 -89.4169460000176,13.7061445559062 -89.416981847318,13.7062174198952 -89.4170623867169,13.7063127263815 -89.4171542278039,13.7063690271055 -89.4172129826933,13.7063936200106 -89.4173264446656,13.7065046200891 -89.4173739682377,13.7065750818458 -89.4174158414597,13.7067794440878 -89.4174007495499,13.7069054290952 -89.4174203114441,13.7069876040674 -89.4173955205133,13.7070805086229 -89.4172673297747,13.7073597486482 -89.4172230010319,13.7076015612249 -89.4172169175788,13.7076931388391 -89.4172711460197,13.7079614429198 -89.4172764344562,13.7080208779675 -89.4172823549237,13.7081420815569 -89.4172899598819,13.7081992059922 -89.4173003729387,13.7083020620145 -89.4173297745596,13.7084310437596 -89.4174245183737,13.708542226704 -89.4176527323807,13.7088328521553 -89.4178524112868,13.7090791414262 -89.4178858961067,13.7091497403192 -89.4179238734663,13.7092019916356 -89.4179293026466,13.7092751529671 -89.4179269312689,13.7093278182824</coordinates></LinearRing></outerBoundaryIs></Polygon></MultiGeometry>
  </Placemark>
  <Placemark>
	<name>J.J. BORJA NATHAN S.A.</name>
	<Style><LineStyle><color>ff0000ff</color></LineStyle><PolyStyle><fill>0</fill></PolyStyle></Style>
	<ExtendedData><SchemaData schemaUrl="#Limites_totales">
		<SimpleData name="altitudeMode">clampToGround</SimpleData>
		<SimpleData name="tomas">0</SimpleData>
		<SimpleData name="fch_polig">06/12/2019</SimpleData>
		<SimpleData name="Departamen">LA LIBERTAD</SimpleData>
		<SimpleData name="area_mz_1">17.67</SimpleData>
		<SimpleData name="área">0</SimpleData>
		<SimpleData name="fch_imag">04/12/2019</SimpleData>
		<SimpleData name="tipo_imag">DRONE</SimpleData>
		<SimpleData name="Nombre_del">J.J. BORJA NATHAN S.A.</SimpleData>
		<SimpleData name="Número_Ú">856819</SimpleData>
		<SimpleData name="Rubro">CAFE</SimpleData>
		<SimpleData name="FID">16</SimpleData>
		<SimpleData name="Área_Ha">0</SimpleData>
		<SimpleData name="Categoría">MAIZ</SimpleData>
		<SimpleData name="Field_1">J.J. BORJA NATHAN S.A.</SimpleData>
	</SchemaData></ExtendedData>
      <MultiGeometry><Polygon><outerBoundaryIs><LinearRing><coordinates>-89.4158778920682,13.7082215828603 -89.4158175902633,13.7083874872718 -89.415773490126,13.7082591166724 -89.4156195158058,13.7084695018127 -89.4154721000168,13.7086997381956 -89.4152960434769,13.7088753435128 -89.4152031013585,13.708940314604 -89.4149597489863,13.7089426927489 -89.4146410512067,13.7089000477075 -89.4145778100784,13.7088844355164 -89.4145777094909,13.7088846508904 -89.4142033604555,13.7098080669228 -89.4141321299409,13.7101656841193 -89.4140203199162,13.7111322943793 -89.4139494631755,13.7115265152609 -89.4138782321939,13.711884132488 -89.4139199739644,13.7123047088143 -89.4135924727676,13.712317060094 -89.413311022653,13.7122557464858 -89.4132664675952,13.7124758256525 -89.4130638232516,13.7127981190554 -89.4131047224681,13.7131363374261 -89.4131361684738,13.7134654962662 -89.4136445959425,13.7137533882122 -89.4143028767243,13.7140489663212 -89.4146410043979,13.71421705867 -89.4145600170242,13.7140212857339 -89.4145016119476,13.7138022127771 -89.4144411059931,13.7124620617407 -89.4144641336541,13.7119676381343 -89.4146227372397,13.7116869575668 -89.4152988917574,13.7109848106091 -89.4158836910433,13.710503199178 -89.4164672708768,13.7099026250468 -89.4170136898304,13.7093298688614 -89.4174063292976,13.7092802692849 -89.4179215812421,13.7093209875468 -89.4179269312689,13.7093278182824 -89.4179293026466,13.7092751529671 -89.4179238734663,13.7092019916356 -89.4178858961067,13.7091497403192 -89.4178524112868,13.7090791414262 -89.4176527323807,13.7088328521553 -89.4174245183737,13.708542226704 -89.4173297745596,13.7084310437596 -89.4173186657022,13.708382310422 -89.4172439643086,13.7083162342099 -89.4172060262711,13.7082677956102 -89.4171667774397,13.7080912444589 -89.4171658411548,13.7079997354987 -89.4171708949707,13.7078837631219 -89.4170815409328,13.7076893983418 -89.417086906884,13.707603928948 -89.4170920231786,13.7074940571625 -89.4171040657896,13.7074512309318 -89.4171718292749,13.7073651513067 -89.4171514248099,13.7072006182376 -89.4171878022423,13.7070965419377 -89.4172051483457,13.7069621457188 -89.4171738248055,13.7069502496363 -89.4171167309398,13.7068592898577 -89.4171220344994,13.706767719865 -89.4171149210018,13.7066823725098 -89.4170710556232,13.7066644978473 -89.4170085334539,13.7066529068255 -89.4167646845465,13.7066064815592 -89.4165336895391,13.7065965376334 -89.4163338931966,13.7065862884931 -89.4160505235229,13.706604180175 -89.4161745702487,13.7066817593646 -89.4161308603314,13.706984196659 -89.4160675888767,13.7072044588089 -89.4160566894995,13.7074545432626 -89.41633738674,13.7075380433421 -89.4164750982789,13.7075794054288 -89.4165446404728,13.7076671930443 -89.4166043238476,13.7077062673479 -89.4166637888248,13.7077239895346 -89.4167137693493,13.7077296020276 -89.4167092769547,13.7079004798283 -89.4167445005964,13.7079886029355 -89.4167580410825,13.7080921910898 -89.416769507062,13.7082979947833 -89.4166981864517,13.7083414006737 -89.416542254319,13.7083490266309 -89.4164549597698,13.7083559813889 -89.4162830225498,13.7083241058028 -89.4161768214524,13.7083129416737 -89.4160987617729,13.7083076035966 -89.416026879485,13.7082961038927 -89.4159110379742,13.7082575784306 -89.4158778920682,13.7082215828603</coordinates></LinearRing></outerBoundaryIs></Polygon></MultiGeometry>
  </Placemark>
  <Placemark>
	<name>J.J. BORJA NATHAN S.A.</name>
	<Style><LineStyle><color>ff0000ff</color></LineStyle><PolyStyle><fill>0</fill></PolyStyle></Style>
	<ExtendedData><SchemaData schemaUrl="#Limites_totales">
		<SimpleData name="altitudeMode">clampToGround</SimpleData>
		<SimpleData name="tomas">0</SimpleData>
		<SimpleData name="fch_polig">06/12/2019</SimpleData>
		<SimpleData name="Departamen">LA LIBERTAD</SimpleData>
		<SimpleData name="area_mz_1">5.35</SimpleData>
		<SimpleData name="área">0</SimpleData>
		<SimpleData name="fch_imag">04/12/2019</SimpleData>
		<SimpleData name="tipo_imag">DRONE</SimpleData>
		<SimpleData name="Nombre_del">J.J. BORJA NATHAN S.A.</SimpleData>
		<SimpleData name="Número_Ú">856819</SimpleData>
		<SimpleData name="Rubro">CAFE</SimpleData>
		<SimpleData name="FID">5</SimpleData>
		<SimpleData name="Área_Ha">0</SimpleData>
		<SimpleData name="Categoría">CAMINO</SimpleData>
		<SimpleData name="Field_1">J.J. BORJA NATHAN S.A.</SimpleData>
	</SchemaData></ExtendedData>
      <MultiGeometry><Polygon><outerBoundaryIs><LinearRing><coordinates>-89.4191220257247,13.7013528245011 -89.4191793274929,13.7013122919677 -89.4192109761096,13.701297350251 -89.4190248519582,13.7011807089011 -89.4188428345636,13.7010017413997 -89.418816885611,13.7009814036789 -89.4186093989935,13.7007145989516 -89.4185749558979,13.7005502033085 -89.4185686377149,13.7003901084691 -89.4186508821498,13.7001948281189 -89.4187389999517,13.7001161758509 -89.4188414844141,13.7000694143514 -89.4190235699271,13.700026450031 -89.4191724763002,13.6999426270633 -89.4194279376442,13.6997525157685 -89.419432570472,13.6997478945393 -89.4195464008262,13.699437907461 -89.4196379332458,13.69923567222 -89.4197165037401,13.699138809516 -89.4197271005461,13.6988023771123 -89.4196693058706,13.6986427860619 -89.4196314005166,13.6985973979211 -89.4195645042624,13.6984630633338 -89.4195677790988,13.6983257542471 -89.4196272094431,13.6981878957535 -89.4198036302688,13.6980488926019 -89.4198469410462,13.6981651542989 -89.4200189630841,13.6980536494578 -89.4201023063808,13.6979658918061 -89.4201669779858,13.6978828927526 -89.4202029629826,13.6977406877153 -89.4201584578636,13.6975077523293 -89.4200596709019,13.6974583840829 -89.4199191889707,13.6974506068628 -89.4198119325794,13.697488263495 -89.4196256378217,13.6975770282746 -89.4195090220801,13.6976147763569 -89.4193132273878,13.6976899061629 -89.4192244551335,13.6977045022408 -89.4190750350966,13.6977379951185 -89.418939560235,13.6977621997116 -89.4185782934467,13.6976742147972 -89.418489006274,13.6976384806967 -89.4184092187622,13.6976163813836 -89.4184214089671,13.6974355139234 -89.4185847274079,13.6973881578293 -89.4186872108215,13.6973413965752 -89.4187943269912,13.6972900140729 -89.4188407018132,13.6972483773949 -89.418971028694,13.6971784642122 -89.4190870826108,13.6970858110578 -89.4191660273087,13.6970255521571 -89.4193983454135,13.6968608351736 -89.4197330757961,13.6966424932515 -89.4197934890931,13.6966007190972 -89.4198393016912,13.6965041769628 -89.420002548035,13.6963355594043 -89.4201136405458,13.6962154990281 -89.4202525762755,13.6960722866754 -89.4203316608159,13.6960257538281 -89.4204434555354,13.6959743249733 -89.4205882882606,13.6959500281574 -89.4208449623409,13.6958788776869 -89.4209709829426,13.695845612982 -89.4211479387535,13.6956448293888 -89.4211838761799,13.6954980489005 -89.4212016106446,13.6954017814617 -89.421179542867,13.6950748207849 -89.421192785159,13.6949969009085 -89.4212060742923,13.6949235564716 -89.4212426674943,13.694840832138 -89.4213261498806,13.6947668006321 -89.4214692014079,13.6945686367773 -89.4214359760912,13.6945232030416 -89.4214118990615,13.6944570882136 -89.4212205530029,13.6945092960129 -89.4211270557565,13.6945193629234 -89.4209818961127,13.694511631823 -89.4208414160113,13.6945038548406 -89.4207289195228,13.6944866521378 -89.4205691592458,13.6944241528709 -89.4203323028064,13.694259450055 -89.4202750712891,13.6941547642878 -89.4202600961683,13.6940633927846 -89.4202781119615,13.6939945780133 -89.4203039416131,13.6937746820702 -89.420312176901,13.6936647798818 -89.4203110531288,13.6935549692579 -89.4202964058342,13.6934956258483 -89.4202673687966,13.6934021039578 -89.4202750422558,13.693237296452 -89.4202503804622,13.6931139883913 -89.4202309600671,13.6930455398618 -89.4202580539588,13.6929491808821 -89.4202763506477,13.6929078187776 -89.4202046362565,13.6927598035504 -89.4200683216954,13.6927016502916 -89.4198849779894,13.6926210774393 -89.4198329884164,13.6925712510239 -89.4197056117792,13.6924718269856 -89.4197139878321,13.6923756511035 -89.4196653438732,13.692195378678 -89.4196452216776,13.6920582983751 -89.4196254739559,13.6919578216303 -89.4197983346522,13.691928675634 -89.4198683399182,13.6919096873383 -89.4200223420904,13.6918669979355 -89.4202055447483,13.6919338444486 -89.4203326403104,13.6920058155872 -89.4204074654884,13.6920005076936 -89.4204256216439,13.691945419263 -89.420434231518,13.6918721206188 -89.4204177350125,13.6916320471988 -89.420449274157,13.6915127652352 -89.4204624698814,13.6914302699278 -89.4204712202095,13.6913706976135 -89.4205127737553,13.6913153802942 -89.4205539527217,13.6912234594292 -89.4205583044649,13.6911913855511 -89.4205896796444,13.6910560895379 -89.4206770212449,13.690901942397 -89.4207979852881,13.6908321204477 -89.4210030861172,13.6907523234331 -89.4210916214694,13.6907148499541 -89.4211095900948,13.6906414597466 -89.4210996223845,13.6905820705876 -89.4210657890673,13.6904771559482 -89.4210836640411,13.6903946148605 -89.4211343420817,13.6903163287069 -89.4211665363851,13.6902611029034 -89.421174865084,13.6901603516267 -89.4211643822933,13.6900506326159 -89.4211871005792,13.6899840597862 -89.4212561217076,13.6898689869513 -89.4212924802687,13.6897633855084 -89.4213429239845,13.6896622221392 -89.421346198547,13.6895249131315 -89.4210566814828,13.6895872325894 -89.4209219138652,13.6896800691068 -89.4208011376784,13.6897681927887 -89.420685087671,13.6898608460916 -89.4206107781636,13.6899164838301 -89.4205225706874,13.6899859852051 -89.4204437688933,13.6900599704543 -89.4203741855373,13.6901201378109 -89.4203094688556,13.6901985611582 -89.4202546259857,13.6903272228397 -89.4202130256952,13.6903779646566 -89.4201438166647,13.6904747355272 -89.4200976772815,13.690539249435 -89.4199817202286,13.6906410534006 -89.4198696000609,13.6906604535487 -89.4197993611303,13.6906565645579 -89.4196910311778,13.6905889853947 -89.4196812510216,13.6905478979026 -89.4196618311233,13.6904794492533 -89.419656777251,13.6904428914447 -89.4198195290774,13.6903406300044 -89.4199732962626,13.6902750635697 -89.4200895808193,13.6902052877473 -89.4201356733475,13.6901361984053 -89.4201347371888,13.6900446895142 -89.4200797292444,13.6896997468652 -89.4200502951764,13.6895673335491 -89.4200632102267,13.689457385576 -89.420174346879,13.6893419010971 -89.4203611034949,13.6892988914001 -89.4204164610731,13.6892205596178 -89.4204484682128,13.6891470321249 -89.4204055106502,13.6890650860619 -89.4203863247929,13.6890195146971 -89.4203704375397,13.6888389219576 -89.4203464786633,13.6887842454638 -89.4205248589602,13.6888374115721 -89.4206184945036,13.6888410715835 -89.4207302860094,13.6887896431451 -89.4207483483387,13.6887254038451 -89.4207709496479,13.6886473924416 -89.4207378191077,13.6886111093183 -89.4207460310203,13.6884989194154 -89.4207214167251,13.6883801867608 -89.4207113088652,13.6883070712146 -89.420682296071,13.6882158369806 -89.4206676492502,13.6881564935303 -89.4206340038899,13.6880698804983 -89.4205247857258,13.6879153680948 -89.4204348002377,13.6878110024448 -89.4204159889601,13.6878020346179 -89.4202616150048,13.6878081202685 -89.4200369561581,13.6878057413148 -89.4199898811954,13.6877787462162 -89.4197834252888,13.6877258540855 -89.4197553019925,13.6877215531556 -89.4196245122493,13.6877457114272 -89.4194276959523,13.6877201801677 -89.4193481458366,13.6877209578424 -89.419037642741,13.6877903436905 -89.4188273494183,13.6878198545633 -89.4186359607919,13.6878674841413 -89.4185003977916,13.6878825366804 -89.4182992292716,13.6878890784116 -89.4180785948416,13.6878225956296 -89.4178441092527,13.6877745515925 -89.417543831276,13.6876996945509 -89.4172861824332,13.6876747557728 -89.4171973200985,13.6876801996207 -89.417217066149,13.6877806768211 -89.4173531435015,13.6878159549851 -89.4174891741338,13.687846657613 -89.4176486954319,13.6878862825027 -89.4179907144503,13.6879241242742 -89.4181452758321,13.6879363418278 -89.4183091960669,13.6879484678305 -89.4183981519402,13.6879521744731 -89.418547800043,13.6879415602424 -89.4188281913638,13.6879022126599 -89.4190568282156,13.6878359152236 -89.4191830790404,13.6878255293225 -89.4193235552419,13.6878333079177 -89.4195677742337,13.6878034649514 -89.419755184966,13.6878245121445 -89.4199664139737,13.6878865094201 -89.4202052983709,13.6879070529215 -89.4203134866577,13.6879609057177 -89.4204873272993,13.6880278440568 -89.4205644214706,13.6882444453495 -89.4206503363329,13.6884083374483 -89.4206614272477,13.6885775373092 -89.4206347082216,13.6887104998007 -89.4205181436655,13.6887528230764 -89.4204104230378,13.6887447248819 -89.4203024215715,13.6887091739724 -89.4202651265081,13.6887232664322 -89.4202287675413,13.6888288677815 -89.4202857633078,13.688910676595 -89.42032565623,13.6891505212866 -89.4201815763895,13.6892480243908 -89.4200744639691,13.6892994068713 -89.4199814366447,13.6893552274724 -89.4199548108158,13.6894973408515 -89.4199934633145,13.689615936328 -89.4200341986865,13.6899381390934 -89.4200398610666,13.6900341776716 -89.4199753783022,13.6901354781718 -89.4199151069125,13.6901909784472 -89.4196455464461,13.690374362712 -89.4195760563659,13.6904436807841 -89.4195533141796,13.6905079658227 -89.4196529403201,13.6906396928234 -89.4197143819223,13.6906985787292 -89.4197473722692,13.6907211356248 -89.4198269233696,13.6907203576547 -89.4198596797036,13.6907200373067 -89.4199903305729,13.6906821523128 -89.4201441447081,13.690621161189 -89.4202089083545,13.6905473133033 -89.4202596335517,13.6904736027205 -89.4203058665005,13.6904182396793 -89.4203473263349,13.6903537715177 -89.4203838258023,13.6902618964637 -89.4203978173847,13.6902571837015 -89.4204869373759,13.6901625059676 -89.4205795903006,13.6900700816024 -89.4206443068525,13.6899916582043 -89.4207417327449,13.6899083389071 -89.4208580168504,13.6898385627887 -89.4210019093677,13.6897227575141 -89.4210669534561,13.6896763621333 -89.4211787920193,13.6896295088871 -89.4212167427196,13.6896794724504 -89.4211805246104,13.6897988002096 -89.4211159487809,13.6898909500349 -89.4210889958681,13.6900010353382 -89.4210440274837,13.6901799354032 -89.4209988249256,13.6903359582612 -89.4209762236303,13.6904139696902 -89.4209597767966,13.6906360617447 -89.4208015175934,13.6907199763353 -89.4206675452382,13.6908905953514 -89.4205101284762,13.6910568677717 -89.4204275364272,13.6912178322675 -89.4203465594616,13.6915366495475 -89.4203343000436,13.6917106537218 -89.420340290438,13.691838720356 -89.4202611135252,13.6918761021011 -89.4201668213463,13.6918083859401 -89.4200729973452,13.6917864241753 -89.4196184778714,13.6918457804169 -89.4195250282887,13.6918604220059 -89.41941995043,13.692110836325 -89.4194777893881,13.6922750032486 -89.4195774632127,13.6924113055919 -89.4198286369793,13.6927177224652 -89.4200214802337,13.6928119301332 -89.4201203587138,13.6928704496218 -89.4201387748058,13.693298116255 -89.4201354062268,13.6934262744469 -89.4201727280002,13.6938720597007 -89.420127337268,13.6940097807968 -89.4202059792304,13.6943773714495 -89.4203008344911,13.6944999927197 -89.420663266313,13.694587964385 -89.4208129182277,13.6945773481091 -89.4210988859647,13.6946248842877 -89.4212019765756,13.6946376029725 -89.4210661572738,13.6950850823736 -89.4210383424014,13.6955681118558 -89.4209232269136,13.6957522744833 -89.4207928078209,13.6958130375968 -89.4206806854026,13.695832438501 -89.420353653723,13.6958882616244 -89.4202518269745,13.6959990796039 -89.4201682969902,13.6960685354257 -89.4199732530176,13.6962168726017 -89.4197357185831,13.6964434156765 -89.4194838405841,13.6966403555368 -89.4193543568681,13.6967926269242 -89.4191868275976,13.6968857836599 -89.4190285169546,13.6969651224279 -89.4187074731331,13.697149010432 -89.418534936077,13.6972101844398 -89.4183719453329,13.6972895686181 -89.418260523807,13.6973776002941 -89.4181676802691,13.6974517225705 -89.4183387671926,13.6977063004385 -89.4187020230434,13.6978743445832 -89.4188940279547,13.6978861944468 -89.4192495386685,13.6978689893741 -89.4193331631614,13.6978086846109 -89.4194304987095,13.6977162143801 -89.4197293385244,13.6976492281323 -89.4198366886614,13.6976207224078 -89.4199633191885,13.6976469387949 -89.4199604191796,13.6978208513926 -89.4198959816613,13.6979267276141 -89.4198081459857,13.698032832765 -89.4196688101848,13.6980227562896 -89.4195573421197,13.6981062130795 -89.4194388311226,13.6981874507809 -89.4194020730472,13.6982541609633 -89.4195315954108,13.6985629111623 -89.4196259506408,13.6988651414677 -89.4195423157969,13.6991530975704 -89.4193773488444,13.6994967602254 -89.4193419134575,13.6996927267143 -89.4191161675323,13.6998139086856 -89.4188460230847,13.699941244664 -89.4185381839112,13.7001581792013 -89.4184738622644,13.7002754938606 -89.4184602804462,13.7005490369779 -89.418540268859,13.7008193769399 -89.4185898970743,13.7008669385058 -89.418897950586,13.70118538231 -89.4189875904189,13.701255431854 -89.4191220257247,13.7013528245011</coordinates></LinearRing></outerBoundaryIs><innerBoundaryIs><LinearRing><coordinates>-89.4208243243684,13.6945486371178 -89.4206872779119,13.6945476902969 -89.4206620023965,13.6945359258973 -89.4206542751909,13.6945239897761 -89.4206650554277,13.6944912810023 -89.4207553590672,13.6944978331524 -89.4208304016144,13.6945136864152 -89.4208243243684,13.6945486371178</coordinates></LinearRing></innerBoundaryIs></Polygon></MultiGeometry>
  </Placemark>
  <Placemark>
	<name>J.J. BORJA NATHAN S.A.</name>
	<Style><LineStyle><color>ff0000ff</color></LineStyle><PolyStyle><fill>0</fill></PolyStyle></Style>
	<ExtendedData><SchemaData schemaUrl="#Limites_totales">
		<SimpleData name="altitudeMode">clampToGround</SimpleData>
		<SimpleData name="tomas">0</SimpleData>
		<SimpleData name="fch_polig">06/12/2019</SimpleData>
		<SimpleData name="Departamen">LA LIBERTAD</SimpleData>
		<SimpleData name="area_mz_1">0.06</SimpleData>
		<SimpleData name="área">0</SimpleData>
		<SimpleData name="fch_imag">04/12/2019</SimpleData>
		<SimpleData name="tipo_imag">DRONE</SimpleData>
		<SimpleData name="Nombre_del">J.J. BORJA NATHAN S.A.</SimpleData>
		<SimpleData name="Número_Ú">856819</SimpleData>
		<SimpleData name="Rubro">CAFE</SimpleData>
		<SimpleData name="FID">11</SimpleData>
		<SimpleData name="Área_Ha">0</SimpleData>
		<SimpleData name="Categoría">CONSTRUCCION</SimpleData>
		<SimpleData name="Field_1">J.J. BORJA NATHAN S.A.</SimpleData>
	</SchemaData></ExtendedData>
      <MultiGeometry><Polygon><outerBoundaryIs><LinearRing><coordinates>-89.4220957121746,13.6948659422091 -89.4221056068367,13.6946896733673 -89.4219205069968,13.6946663182771 -89.4219130691166,13.6948540028181 -89.4220957121746,13.6948659422091</coordinates></LinearRing></outerBoundaryIs></Polygon></MultiGeometry>
  </Placemark>
  <Placemark>
	<name>J.J. BORJA NATHAN S.A.</name>
	<Style><LineStyle><color>ff0000ff</color></LineStyle><PolyStyle><fill>0</fill></PolyStyle></Style>
	<ExtendedData><SchemaData schemaUrl="#Limites_totales">
		<SimpleData name="altitudeMode">clampToGround</SimpleData>
		<SimpleData name="tomas">0</SimpleData>
		<SimpleData name="fch_polig">06/12/2019</SimpleData>
		<SimpleData name="Departamen">LA LIBERTAD</SimpleData>
		<SimpleData name="area_mz_1">17.77</SimpleData>
		<SimpleData name="área">0</SimpleData>
		<SimpleData name="fch_imag">04/12/2019</SimpleData>
		<SimpleData name="tipo_imag">DRONE</SimpleData>
		<SimpleData name="Nombre_del">J.J. BORJA NATHAN S.A.</SimpleData>
		<SimpleData name="Número_Ú">856819</SimpleData>
		<SimpleData name="Rubro">CAFE</SimpleData>
		<SimpleData name="FID">13</SimpleData>
		<SimpleData name="Área_Ha">0</SimpleData>
		<SimpleData name="Categoría">ARBOL</SimpleData>
		<SimpleData name="Field_1">J.J. BORJA NATHAN S.A.</SimpleData>
	</SchemaData></ExtendedData>
      <MultiGeometry><Polygon><outerBoundaryIs><LinearRing><coordinates>-89.4179696467606,13.7055338175299 -89.4179099195751,13.7055519749591 -89.4178665850007,13.7055859554725 -89.4176716572818,13.7057464934587 -89.4176168419384,13.7058782055406 -89.4175871102469,13.7060218746994 -89.4176003732331,13.7060918439509 -89.4175508891341,13.7061412025012 -89.4175271786488,13.7062634585451 -89.4174217275363,13.7063255019708 -89.4173970183053,13.706350148461 -89.41734167218,13.7064300054473 -89.4173268357264,13.7064435717755 -89.4174122605822,13.7065438199747 -89.4174440134807,13.7066739227257 -89.4174534792821,13.7069129212013 -89.4174406804843,13.7070343078745 -89.4173563628545,13.7072559199923 -89.4173105478355,13.7073524621026 -89.4172640196724,13.7076080239084 -89.4172601591093,13.7076881400161 -89.4173069465072,13.70791533371 -89.4173800817388,13.7082017564325 -89.4174319472474,13.7084677955821 -89.4175975559339,13.7086434918973 -89.4177832887254,13.7088990694974 -89.4180015471522,13.7091886479215 -89.4181607688385,13.7093689821016 -89.4182183088164,13.7095034081724 -89.418347557396,13.7097847053127 -89.4184841768742,13.7100430506871 -89.4186038790161,13.7103061374164 -89.4185884742048,13.710630033177 -89.4185823354861,13.710944686439 -89.4186088388987,13.7112475804384 -89.4186436606841,13.7113187190922 -89.4187602675058,13.7111808915957 -89.4188390992532,13.7111091934658 -89.418899516006,13.7110674189363 -89.4189190161509,13.7110322777639 -89.41892853099,13.7109160039758 -89.4190222794562,13.7108152934041 -89.4191611761527,13.7106675048483 -89.4193184172404,13.7104829294481 -89.4197719821043,13.7099842914398 -89.4198360001885,13.7098372358464 -89.4200661490546,13.7094597585313 -89.4202417330367,13.7092383959626 -89.4203989724009,13.7090538201518 -89.4201544958376,13.7089463929291 -89.4198435644038,13.7087480981893 -89.4194864912064,13.7086143172886 -89.4193360805738,13.7085517271844 -89.4189786330489,13.7083813419172 -89.4187347197847,13.7083288183716 -89.418452618525,13.7082034538342 -89.4180959213049,13.7081062742085 -89.4176892432926,13.707927216679 -89.4176141788136,13.707909647355 -89.4175230593824,13.7078750423041 -89.4173804187032,13.7076629402926 -89.4175086445145,13.707387131795 -89.4177657040519,13.7068949955352 -89.4177541460364,13.7068146370251 -89.4177621020176,13.7068145592007 -89.4177679511988,13.7068130685687 -89.4177517123509,13.7067139909323 -89.4178173231928,13.7067225009409 -89.417893697858,13.7067810226804 -89.4179488258308,13.7067669735786 -89.418051313166,13.7067202119268 -89.4182846474614,13.7066538664656 -89.4186465802978,13.7063483155602 -89.4188045689808,13.7062369479283 -89.418915665982,13.7061168873071 -89.4190455756839,13.7060057943432 -89.4195525272738,13.7052366573089 -89.4197673361615,13.7050736992687 -89.4198579712177,13.7048996267998 -89.420015396051,13.7047333533611 -89.4202384308731,13.7045755893077 -89.4203681516554,13.7044461941246 -89.4205075129761,13.7043441598819 -89.4207128592368,13.7042872384159 -89.4209179241318,13.7042028641752 -89.4209547086387,13.7041992311216 -89.421069145877,13.7040736513938 -89.4212166472744,13.7038525638421 -89.4214118430331,13.7036503627849 -89.4213789830274,13.7035234041859 -89.4214459835835,13.703429110972 -89.421443746458,13.7034064777947 -89.4214332789549,13.7033904622432 -89.4215188313684,13.7032406169281 -89.4215736752815,13.7031119547057 -89.4215727376446,13.7030204460079 -89.4214602369958,13.7030032443293 -89.4213569082728,13.7029676491887 -89.4212817516032,13.7029409298858 -89.4212065949471,13.7029142105572 -89.4211312508141,13.702869189457 -89.4210932506554,13.7028146508402 -89.4210632975569,13.7026319083324 -89.4210810789749,13.7025402162926 -89.4210898759401,13.7024852193993 -89.421079954089,13.7024304058099 -89.4210700322446,13.7023755922191 -89.4210320321976,13.7023210535755 -89.4210057703283,13.7023127794407 -89.4210231977729,13.7022347939013 -89.4209071974634,13.702199119988 -89.4207910419008,13.7018250337738 -89.420604832085,13.7014653609633 -89.4202056063649,13.7013274161553 -89.4195961943643,13.70134482019 -89.4192585075418,13.7012749100435 -89.4191895970873,13.7013074435615 -89.4193101371784,13.7014036740935 -89.4195267611349,13.7015342555408 -89.419602151415,13.7015838526981 -89.4197340727658,13.7016695037946 -89.4198590917738,13.701766662108 -89.4199767868333,13.7018341486801 -89.4201854920955,13.702048317081 -89.4202282887459,13.7021142486866 -89.4203363347286,13.7023820250353 -89.4203505525108,13.7026278403661 -89.4204567511284,13.7029436816038 -89.4205115668783,13.7032691776185 -89.4204797844446,13.7035932335211 -89.4203231455203,13.7038361456909 -89.4201789171955,13.7039199238534 -89.4198323038106,13.7041784232504 -89.4195937214257,13.7044175613186 -89.4194634380072,13.7044920508645 -89.419159559217,13.7045819669353 -89.4190242679185,13.7046244739824 -89.4187243542678,13.7046445682586 -89.4185355631295,13.7046227788543 -89.4184285578498,13.7047049351277 -89.4184427229891,13.7048695290552 -89.4183944913097,13.7050347334307 -89.4183708437239,13.7051630900683 -89.4183404569419,13.705242703004 -89.4181547021026,13.7053848479256 -89.4179874788481,13.7055085078494 -89.4179696467606,13.7055338175299</coordinates></LinearRing></outerBoundaryIs></Polygon></MultiGeometry>
  </Placemark>
  <Placemark>
	<name>J.J. BORJA NATHAN S.A.</name>
	<Style><LineStyle><color>ff0000ff</color></LineStyle><PolyStyle><fill>0</fill></PolyStyle></Style>
	<ExtendedData><SchemaData schemaUrl="#Limites_totales">
		<SimpleData name="altitudeMode">clampToGround</SimpleData>
		<SimpleData name="tomas">0</SimpleData>
		<SimpleData name="fch_polig">06/12/2019</SimpleData>
		<SimpleData name="Departamen">LA LIBERTAD</SimpleData>
		<SimpleData name="area_mz_1">17.1</SimpleData>
		<SimpleData name="área">0</SimpleData>
		<SimpleData name="fch_imag">04/12/2019</SimpleData>
		<SimpleData name="tipo_imag">DRONE</SimpleData>
		<SimpleData name="Nombre_del">J.J. BORJA NATHAN S.A.</SimpleData>
		<SimpleData name="Número_Ú">856819</SimpleData>
		<SimpleData name="Rubro">CAFE</SimpleData>
		<SimpleData name="FID">15</SimpleData>
		<SimpleData name="Área_Ha">0</SimpleData>
		<SimpleData name="Categoría">PASTO</SimpleData>
		<SimpleData name="Field_1">J.J. BORJA NATHAN S.A.</SimpleData>
	</SchemaData></ExtendedData>
      <MultiGeometry><Polygon><outerBoundaryIs><LinearRing><coordinates>-89.4173186657022,13.708382310422 -89.4173003729387,13.7083020620145 -89.4172899598819,13.7081992059922 -89.4172823549237,13.7081420815569 -89.4172764344562,13.7080208779675 -89.4172711460197,13.7079614429198 -89.4172169175788,13.7076931388391 -89.4172230010319,13.7076015612249 -89.4172673297747,13.7073597486482 -89.4173955205133,13.7070805086229 -89.4174203114441,13.7069876040674 -89.4174007495499,13.7069054290952 -89.4174158414597,13.7067794440878 -89.4173739682377,13.7065750818458 -89.4173264446656,13.7065046200891 -89.4172129826933,13.7063936200106 -89.4171542278039,13.7063690271055 -89.4170623867169,13.7063127263815 -89.416981847318,13.7062174198952 -89.4169460000176,13.7061445559062 -89.4168963239811,13.7060924187073 -89.4168842500901,13.706055929506 -89.4168719187966,13.7059942753296 -89.4168713337821,13.7059370822074 -89.4168708657724,13.7058913277094 -89.4169523757136,13.7056239841233 -89.4171508330974,13.7053509210894 -89.4173047152272,13.7050668540972 -89.417435853527,13.7048470721639 -89.4175814989861,13.7046729073765 -89.4177099464288,13.7045904288403 -89.4178456594054,13.7045891015002 -89.4179720128534,13.704587865634 -89.4182859073924,13.7045619156267 -89.4183677562859,13.7045565390203 -89.4187098696691,13.704544040131 -89.4187871324356,13.7045478600635 -89.4188557377494,13.704563204438 -89.4191126557739,13.7045149313913 -89.4191710355676,13.7045029203362 -89.4194023547295,13.7044114264658 -89.419483735021,13.7043602950871 -89.4195279349626,13.7043346950379 -89.4198427154161,13.704109682851 -89.4199377833114,13.7040240981303 -89.4200284525303,13.7039660118336 -89.4201098325137,13.7039148802947 -89.4201910250274,13.7038454469774 -89.4202464789603,13.7037762656214 -89.4203206517882,13.7037069009965 -89.4204305636819,13.7034713101706 -89.4204319663241,13.7033797784896 -89.4204242438279,13.7033112156341 -89.4204223108476,13.7031224787861 -89.4203768460479,13.7030245420927 -89.4203489273918,13.7028743576899 -89.4202924809212,13.7029936108034 -89.4202341416148,13.7030856998794 -89.4201569271978,13.7031627207267 -89.4201045775454,13.7032303463596 -89.4200520716872,13.7032827205195 -89.4200024045084,13.7033076114922 -89.4198410485621,13.7033946076837 -89.4197290474251,13.7034262099297 -89.4196449684708,13.7034422858485 -89.4195669105323,13.7034369486128 -89.4193984402847,13.7034385973706 -89.4193074346682,13.7033876277529 -89.4191600537813,13.7033158555429 -89.4190494238953,13.7031766104092 -89.4189830023194,13.7030887928801 -89.4189320237685,13.7029855712219 -89.4188930562294,13.7028364730091 -89.4188640413445,13.702745238838 -89.4187087182739,13.7022022259743 -89.4186603292464,13.7020471186371 -89.4186348229983,13.7016889223882 -89.4186055899361,13.7015763360602 -89.4185732371151,13.70146378024 -89.4185574548477,13.7013974812761 -89.4184407792336,13.7014018831044 -89.4176013357034,13.7013506055605 -89.4175217808974,13.7013513834067 -89.4173954759314,13.7013571942067 -89.41715857015,13.7014638216438 -89.4171695587785,13.7014847827304 -89.4171605550227,13.7014967681113 -89.4171624266723,13.7016797861277 -89.4172328558472,13.702159567886 -89.4171796005405,13.7024437948102 -89.4169098145436,13.7030364014589 -89.4170102787317,13.7031629977995 -89.4170239434747,13.7032787872031 -89.4169694088444,13.7034379518325 -89.4168171609147,13.7038055128927 -89.4167342743201,13.7038826800386 -89.4166623478346,13.7040366916418 -89.4164236794155,13.7044966155818 -89.4162230097669,13.7050110789232 -89.4159666498404,13.7055718456324 -89.4159211618885,13.7057004157083 -89.4157835750713,13.7059763150451 -89.4156829585683,13.7062060939292 -89.4156486543747,13.7065130152178 -89.4159296296794,13.7065285726887 -89.4160505235229,13.706604180175 -89.4163338931966,13.7065862884931 -89.4165336895391,13.7065965376334 -89.4167646845465,13.7066064815592 -89.4170085334539,13.7066529068255 -89.4170710556232,13.7066644978473 -89.4171149210018,13.7066823725098 -89.4171220344994,13.706767719865 -89.4171167309398,13.7068592898577 -89.4171738248055,13.7069502496363 -89.4172051483457,13.7069621457188 -89.4171878022423,13.7070965419377 -89.4171514248099,13.7072006182376 -89.4171718292749,13.7073651513067 -89.4171040657896,13.7074512309318 -89.4170920231786,13.7074940571625 -89.417086906884,13.707603928948 -89.4170815409328,13.7076893983418 -89.4171708949707,13.7078837631219 -89.4171658411548,13.7079997354987 -89.4171667774397,13.7080912444589 -89.4172060262711,13.7082677956102 -89.4172439643086,13.7083162342099 -89.4173186657022,13.708382310422</coordinates></LinearRing></outerBoundaryIs></Polygon></MultiGeometry>
  </Placemark>
</Folder>
</Document></kml>
